<?xml version="1.0" encoding="UTF-8" standalone="no"?>
<!-- Created with Inkscape (http://www.inkscape.org/) -->

<svg
   xmlns:dc="http://purl.org/dc/elements/1.1/"
   xmlns:cc="http://creativecommons.org/ns#"
   xmlns:rdf="http://www.w3.org/1999/02/22-rdf-syntax-ns#"
   xmlns:svg="http://www.w3.org/2000/svg"
   xmlns="http://www.w3.org/2000/svg"
   xmlns:xlink="http://www.w3.org/1999/xlink"
   version="1.1"
   width="75.150002"
   height="75.153748"
   id="svg6856">
  <defs
     id="defs6858">
  </defs>
  <metadata
     id="metadata6861">
    <rdf:RDF>
      <cc:Work
         rdf:about="">
        <dc:format>image/svg+xml</dc:format>
        <dc:type
           rdf:resource="http://purl.org/dc/dcmitype/StillImage" />
        <dc:title></dc:title>
      </cc:Work>
    </rdf:RDF>
  </metadata>
  <g
     transform="translate(-337.4796,-494.78531)"
     id="layer1">
    <g
       transform="translate(68.744205,-118.63694)"
       id="g5211"
       style="fill:#ffffff;fill-opacity:1">
      <path
         d="m 305.072,634.234 -23.515,23.748 c 0,0 2.029,1.912 7.241,1.682 1.113,2.375 2.169,5.17 8.256,8.029 -0.246,4.967 2.145,7.756 2.145,7.756 l 23.531,-23.727 c -0.285,-3.236 -2.707,-7.267 -6.549,-11.064 -5.251,-5.205 -9.648,-6.219 -11.109,-6.424"
         clip-path="url(#SVGID_151_)"
         id="path5219"
         style="fill:#ffffff;fill-opacity:1" />
      <path
         d="m 339.092,617.252 c -6.904,-5.66 -11.676,-4 -14.107,-1.658 -0.846,0.816 -3.516,2.968 -5.469,4.533 2.199,0.141 6.617,1.09 11.467,5.891 4.826,4.777 5.746,8.861 5.799,11.141 1.641,-2.121 4.217,-5.443 4.615,-5.845 2.656,-2.708 4.599,-8.404 -2.305,-14.062"
         clip-path="url(#SVGID_151_)"
         id="path5221"
         style="fill:#ffffff;fill-opacity:1" />
      <path
         d="m 285.355,662.498 c -4.658,0.012 -5.748,-1.031 -5.748,-1.031 l -10.817,27.109 27.004,-11.217 c 0,0 -2.144,-4.244 -2.088,-6.516 -1.888,-0.599 -6.834,-3.607 -8.351,-8.345"
         clip-path="url(#SVGID_151_)"
         id="path5223"
         style="fill:#ffffff;fill-opacity:1" />
      <path
         d="m 316.479,622.734 -2.68,2.638 c 0,0 5.117,0.833 11.186,6.845 3.807,3.781 5.861,7.779 6.229,10.572 l 2.561,-2.553 c 0,0 0.891,-4.625 -5.691,-11.201 -6.465,-6.465 -11.605,-6.301 -11.605,-6.301"
         clip-path="url(#SVGID_151_)"
         id="path5225"
         style="fill:#ffffff;fill-opacity:1" />
      <path
         d="m 311.422,628.66 -2.563,2.525 c 0,0 4.904,0.797 10.707,6.559 3.645,3.615 5.615,7.439 5.969,10.117 l 2.447,-2.451 c 0,0 0.852,-4.424 -5.447,-10.721 -6.185,-6.187 -11.113,-6.029 -11.113,-6.029"
         clip-path="url(#SVGID_151_)"
         id="path5227"
         style="fill:#ffffff;fill-opacity:1" />
    </g>
  </g>
</svg>
