<?xml version="1.0" encoding="UTF-8" standalone="no"?>
<!-- Generator: Adobe Illustrator 17.1.0, SVG Export Plug-In . SVG Version: 6.00 Build 0)  -->

<svg
   xmlns:dc="http://purl.org/dc/elements/1.1/"
   xmlns:cc="http://creativecommons.org/ns#"
   xmlns:rdf="http://www.w3.org/1999/02/22-rdf-syntax-ns#"
   xmlns:svg="http://www.w3.org/2000/svg"
   xmlns="http://www.w3.org/2000/svg"
   xmlns:sodipodi="http://sodipodi.sourceforge.net/DTD/sodipodi-0.dtd"
   xmlns:inkscape="http://www.inkscape.org/namespaces/inkscape"
   version="1.1"
   id="Capa_1"
   x="0px"
   y="0px"
   viewBox="0 0 140 140"
   xml:space="preserve"
   inkscape:version="0.48.2 r9819"
   width="100%"
   height="100%"
   sodipodi:docname="rocket.svg"><metadata
   id="metadata21"><rdf:RDF><cc:Work
       rdf:about=""><dc:format>image/svg+xml</dc:format><dc:type
         rdf:resource="http://purl.org/dc/dcmitype/StillImage" /><dc:title></dc:title></cc:Work></rdf:RDF></metadata><defs
   id="defs19" /><sodipodi:namedview
   pagecolor="#ffffff"
   bordercolor="#666666"
   borderopacity="1"
   objecttolerance="10"
   gridtolerance="10"
   guidetolerance="10"
   inkscape:pageopacity="0"
   inkscape:pageshadow="2"
   inkscape:window-width="758"
   inkscape:window-height="1080"
   id="namedview17"
   showgrid="false"
   fit-margin-top="0"
   fit-margin-left="0"
   fit-margin-right="0"
   fit-margin-bottom="0"
   showborder="true"
   inkscape:showpageshadow="false"
   inkscape:zoom="2.2250293"
   inkscape:cx="75.779167"
   inkscape:cy="106.41188"
   inkscape:window-x="271"
   inkscape:window-y="81"
   inkscape:window-maximized="0"
   inkscape:current-layer="Capa_1" />
<g
   id="g3"
   transform="translate(-5.0600036,-5.4425)"
   style="fill:#ffffff;fill-opacity:1">
	<path
   d="m 21.433,140.989 c 4.53,-8.033 18.945,-32.03 32.31,-37.461 -2.799,-7.086 -3.118,-14.61 -0.692,-19.817 -0.771,-4.58 -1.297,-9.345 -1.579,-14.242 -9.104,7.101 -29.64,27.81 -31.394,71.151 -0.067,1.656 0.542,1.812 1.355,0.369 z"
   id="path5"
   inkscape:connector-curvature="0"
   style="fill:#ffffff;fill-opacity:1" />
	<path
   d="m 128.687,140.033 c 0.814,1.443 1.422,1.287 1.355,-0.369 -1.759,-43.441 -22.387,-64.148 -31.459,-71.203 -0.265,5.251 -0.806,10.357 -1.629,15.25 2.327,4.993 2.119,12.115 -0.368,18.939 13.305,5.595 27.594,29.392 32.101,37.383 z"
   id="path7"
   inkscape:connector-curvature="0"
   style="fill:#ffffff;fill-opacity:1" />
	<path
   d="m 85.639,13.878 c -0.784,-1.237 -1.601,-2.342 -2.448,-3.302 -2.513,-2.849 -5.28,-4.432 -8.188,-4.432 -2.908,0 -5.675,1.583 -8.188,4.432 -0.847,0.96 -1.664,2.065 -2.448,3.302 2.266,1.645 6.094,2.895 10.636,2.895 4.542,0 8.37,-1.251 10.636,-2.895 z"
   id="path9"
   inkscape:connector-curvature="0"
   style="fill:#ffffff;fill-opacity:1" />
	<path
   d="m 75.003,66.926 c 5.797,0 10.513,-7.013 10.513,-15.634 0,-8.621 -4.716,-15.634 -10.513,-15.634 -5.797,0 -10.514,7.013 -10.514,15.634 0,8.621 4.716,15.634 10.514,15.634 z m 0,-26.237 c 4.099,0 7.422,4.747 7.422,10.603 0,5.856 -3.323,10.603 -7.422,10.603 -4.099,0 -7.422,-4.747 -7.422,-10.603 0,-5.856 3.323,-10.603 7.422,-10.603 z"
   id="path11"
   inkscape:connector-curvature="0"
   style="fill:#ffffff;fill-opacity:1" />
	<path
   d="m 56.037,83.326 c 0.048,0.286 0.092,0.579 0.142,0.863 -0.029,0.05 -0.052,0.106 -0.08,0.157 -2.517,4.573 -2.093,11.762 0.54,18.308 2.708,6.736 7.751,12.778 14.345,14.57 L 68.487,84.36 c -0.063,-0.833 0.223,-1.654 0.791,-2.267 0.568,-0.612 1.365,-0.961 2.2,-0.961 h 9.678 c 0.835,0 1.632,0.348 2.2,0.961 0.568,0.613 0.854,1.434 0.791,2.267 l -2.421,31.863 c 5.55,-2.643 9.741,-8.348 11.996,-14.485 2.297,-6.251 2.578,-12.94 0.229,-17.302 -0.043,-0.08 -0.079,-0.167 -0.125,-0.246 0.083,-0.469 0.157,-0.95 0.235,-1.426 0.84,-5.112 1.396,-10.621 1.61,-16.4 0.066,-1.77 0.105,-3.561 0.105,-5.377 0,-17.375 -3.064,-32.852 -7.84,-42.9 -3.196,2.139 -7.765,3.466 -12.934,3.466 -5.169,0 -9.738,-1.327 -12.934,-3.466 -4.776,10.048 -7.84,25.525 -7.84,42.9 0,2.16 0.05,4.289 0.142,6.384 0.25,5.623 0.824,10.981 1.667,15.955 z M 75.003,32.791 c 7.378,0 13.381,8.299 13.381,18.501 0,10.202 -6.003,18.502 -13.381,18.502 -7.379,0 -13.381,-8.3 -13.381,-18.502 0,-10.202 6.002,-18.501 13.381,-18.501 z"
   id="path13"
   inkscape:connector-curvature="0"
   style="fill:#ffffff;fill-opacity:1" />
	<path
   d="m 74.031,117.722 0.115,1.513 0.114,1.505 1.73,22.766 c 0.09,0.823 0.209,1.235 0.327,1.235 0.118,0 0.237,-0.412 0.327,-1.235 l 1.753,-23.071 0.118,-1.551 0.119,-1.567 2.521,-33.183 h -9.678 l 2.554,33.588 z"
   id="path15"
   inkscape:connector-curvature="0"
   style="fill:#ffffff;fill-opacity:1" />
</g>
</svg>